7 85 116
85 37 116
72 39 113
49 44 105
7 25 24
73 22 116
10 49 112
85 2 116
80 71 116
68 17 113
65 47 113
28 68 113
17 41 112
47 73 116
17 87 116
4 7 17
29 3 112
64 12 113
18 86 116
86 48 116
71 84 116
9 47 112
16 82 116
92 16 116
24 90 116
3 73 116
24 6 21
97 60 119
10 23 21
76 45 116
51 92 116
37 61 113
56 34 113
25 41 112
43 31 110
46 62 113
67 13 113
45 32 110
13 39 112
66 88 116
67 4 113
6 96 116
94 27 116
47 98 119
77 57 116
61 32 113
100 21 119
38 23 112
47 83 116
50 34 110
38 31 107
33 80 116
51 77 116
75 88 111
82 43 116
48 38 110
95 72 116
60 87 116
60 97 119
84 79 111
19 75 116
49 94 116
15 2 20
35 41 110
60 84 116
95 87 106
71 55 113
20 57 113
38 54 113
83 88 111
62 6 113
23 8 21
34 6 112
23 48 112
35 62 113
4 82 116
43 8 112
52 15 112
34 51 110
2 84 116
66 10 113
82 58 116
78 26 116
44 68 113
45 69 113
14 45 112
58 91 116
36 69 113
69 85 116
41 42 110
61 37 113
99 2 119
88 63 116
54 3 113
30 67 113
36 73 116
86 10 116
13 72 113
86 85 31
45 54 113
25 77 116
8 18 21
64 76 116
97 31 119
51 70 113
38 5 112
87 80 111
28 29 19
63 83 116
42 45 30
20 80 116
29 95 116
2 27 112
41 52 110
46 46 17
72 75 116
36 21 112
83 92 111
21 51 112
73 37 116
73 36 116
88 65 116
7 33 112
76 19 116
49 47 105
72 29 113
36 26 112
23 9 21
95 94 106
21 38 112
70 92 116
82 84 111
58 45 113
39 9 112
83 33 116
37 31 107
44 56 113
13 14 18
75 43 116
18 2 21
21 85 116
72 25 113
46 85 116
88 7 116
43 82 116
9 1 20
12 21 21
88 78 111
81 42 116
7 30 112
99 36 119
87 35 116
88 54 116
96 8 116
35 71 113
58 13 113
67 76 116
80 85 111
2 87 116
69 54 113
55 59 113
40 3 112
42 2 112
89 35 116
5 90 116
29 69 113
25 45 112
90 81 111
70 82 116
23 24 16
84 5 116
48 95 116
23 100 119
15 42 112
67 10 113
52 61 113
7 37 112
10 99 119
43 17 112
98 33 119
93 38 116
46 22 112
33 85 116
14 63 113
36 32 27
42 16 112
9 88 116
27 72 113
42 100 119
97 48 119
15 93 116
42 42 9
48 100 119
48 73 116
92 100 119
21 68 113
99 29 119
3 86 116
94 26 116
35 69 113
84 16 116
38 71 113
8 43 112
26 87 116
14 58 113
23 42 112
42 42 9
20 81 116
90 57 116
47 6 112
56 49 113
28 45 110
55 27 113
58 80 116
3 23 21
55 32 113
33 88 116
35 71 113
54 65 113
36 99 119
1 30 112
89 57 116
77 57 116
10 86 116
99 73 119
61 3 113
65 44 113
38 26 112
72 32 113
63 90 116
79 42 116
67 17 113
81 28 116
61 49 113
15 64 113
82 2 116
14 3 20
54 68 113
78 73 116
67 25 113
64 20 113
17 19 21
43 29 110
41 75 116
28 90 116
89 73 116
5 38 112
45 79 116
48 71 113
16 53 112
1 1 1
2 2 2
